…
### get_authors()

Returns a table with all authors in a corpus.

``` r
get_authors(corpus="cs")
```

    ## # A tibble: 606 × 8
    ##      id_ name                 viaf     wiki      country  born  died n_poems
    ##    <int> <chr>                <chr>    <chr>     <lgl>   <int> <int>   <int>
    ##  1   186 Adámek, Bohumil      83654820 Q11217870 NA       1848  1915      26
    ##  2   218 Adámek, Josef        <NA>     <NA>      NA         NA    NA       3
    ##  3     1 Albert, Eduard       50027287 Q700775   NA       1841  1900      43
    ##  4   519 Alexis               <NA>     <NA>      NA         NA    NA       1
    ##  5     2 Ambrož, Vilém        14479787 Q27479890 NA       1846  1903     105
    ##  6   152 Aren, J.             <NA>     <NA>      NA         NA    NA       1
    ##  7     4 Arietto, Ladislav    83656997 Q33037726 NA       1861  1927      23
    ##  8     5 Auředníček, Otakar   3401502  Q12043163 NA       1868  1947     103
    ##  9   263 Baar, Jindřich Šimon 54946709 Q1356321  NA       1869  1925      33
    ## 10   597 Baarová, Marie       <NA>     <NA>      NA         NA    NA      56
    ## # ℹ 596 more rows
…
### get_poems()

Returns a table with all poems for a given author ID (or vector of
author IDs!). Check `?get_poems()` for more options and handling of
poems with multiple authors.

``` r
author_ids <- c(1,21)
get_poems(corpus = "cs",authors = author_ids)
```

    ## # A tibble: 383 × 8
    ##      id_ id          title id_source year_created_from year_created_to duplicate
    ##    <int> <chr>       <chr>     <int>             <int>           <int> <chr>    
    ##  1     1 0001_0001-… JARO…         1                NA              NA FALSE    
    ##  2     2 0001_0001-… ČASN…         1                NA              NA FALSE    
    ##  3     3 0001_0001-… ZMRZ…         1                NA              NA FALSE    
    ##  4     4 0001_0001-… V PO…         1                NA              NA FALSE    
    ##  5     5 0001_0001-… VEČE…         1                NA              NA FALSE    
    ##  6     6 0001_0001-… PŘED…         1                NA              NA FALSE    
    ##  7     7 0001_0001-… SNĚŽ…         1                NA              NA FALSE    
    ##  8     8 0001_0001-… ČESK…         1                NA              NA FALSE    
    ##  9     9 0001_0001-… HRAČ…         1                NA              NA FALSE    
    ## 10    10 0001_0001-… SMRT          1                NA              NA FALSE    
    ## # ℹ 373 more rows
    ## # ℹ 1 more variable: id_author <int>
…
`output` parameter controls output. `tokenized` and `annotated` options
return a text in one-token-per-row format. `annotated` also returns
UDpipe part-of-speech annotations and dependency parsing.

``` r
get_text(corpus="cs",
         poem_id=1,
         output="tokenized")
```

    ## # A tibble: 93 × 7
    ##    corpus id_poem id_stanza id_line line_text                      form    lemma
    ##    <chr>    <int>     <int>   <int> <chr>                          <chr>   <chr>
    ##  1 cs           1         1       0 Tvá loď jde po vysokém moři,   Tvá     tvůj 
    ##  2 cs           1         1       0 Tvá loď jde po vysokém moři,   loď     loď  
    ##  3 cs           1         1       0 Tvá loď jde po vysokém moři,   jde     jít  
    ##  4 cs           1         1       0 Tvá loď jde po vysokém moři,   po      po   
    ##  5 cs           1         1       0 Tvá loď jde po vysokém moři,   vysokém vyso…
    ##  6 cs           1         1       0 Tvá loď jde po vysokém moři,   moři    moře 
    ##  7 cs           1         1       0 Tvá loď jde po vysokém moři,   ,       ,    
    ##  8 cs           1         1       1 v ně brázdu jako stříbro reje, v       v    
    ##  9 cs           1         1       1 v ně brázdu jako stříbro reje, ně      on   
    ## 10 cs           1         1       1 v ně brázdu jako stříbro reje, brázdu  bráz…
    ## # ℹ 83 more rows
…
